{
  "description": "Documents of presidential document type Executive Order",
  "count": 1480,
  "total_pages": 50,
  "next_page_url": "https://www.federalregister.gov/api/v1/documents?conditions%5Bpresidential_document_type%5D%5B%5D=executive_order&format=json&order=newest&page=2&per_page=2",
  "results": [
    {
      "title": "Implementing the United States-Japan Agreement",
      "type": "Presidential Document",
      "abstract": "null",
      "document_number": "2025-17389",
      "html_url": "https://www.federalregister.gov/documents/2025/09/09/2025-17389/implementing-the-united-states-japan-agreement",
      "pdf_url": "https://www.govinfo.gov/content/pkg/FR-2025-09-09/pdf/2025-17389.pdf",
      "public_inspection_pdf_url": "null",
      "publication_date": "2025-09-09",
      "agencies": [
        {
          "raw_name": "EXECUTIVE OFFICE OF THE PRESIDENT",
          "name": "Executive Office of the President",
          "id": 538,
          "url": "https://www.federalregister.gov/agencies/executive-office-of-the-president",
          "json_url": "https://www.federalregister.gov/api/v1/agencies/538",
          "parent_id": "null",
          "slug": "executive-office-of-the-president"
        }
      ],
      "excerpts": "null"
    },
    {
      "title": "Making Federal Architecture Beautiful Again",
      "type": "Presidential Document",
      "abstract": "null",
      "document_number": "2025-16928",
      "html_url": "https://www.federalregister.gov/documents/2025/09/03/2025-16928/making-federal-architecture-beautiful-again",
      "pdf_url": "https://www.govinfo.gov/content/pkg/FR-2025-09-03/pdf/2025-16928.pdf",
      "public_inspection_pdf_url": "https://public-inspection.federalregister.gov/2025-16928.pdf?1756826108",
      "publication_date": "2025-09-03",
      "agencies": [
        {
          "raw_name": "EXECUTIVE OFFICE OF THE PRESIDENT",
          "name": "Executive Office of the President",
          "id": 538,
          "url": "https://www.federalregister.gov/agencies/executive-office-of-the-president",
          "json_url": "https://www.federalregister.gov/api/v1/agencies/538",
          "parent_id": "null",
          "slug": "executive-office-of-the-president"
        }
      ],
      "excerpts": "null"
    }
  ]
}


{}